<?xml version="1.0" encoding="UTF-8" standalone="no"?>
<graphml xmlns="http://graphml.graphdrawing.org/xmlns" xmlns:xsi="http://www.w3.org/2001/XMLSchema-instance" xmlns:y="http://www.yworks.com/xml/graphml" xmlns:yed="http://www.yworks.com/xml/yed/3" xsi:schemaLocation="http://graphml.graphdrawing.org/xmlns http://www.yworks.com/xml/schema/graphml/1.1/ygraphml.xsd">
  <!--Created by yEd 3.12.2-->
  <key for="graphml" id="d0" yfiles.type="resources"/>
  <key for="port" id="d1" yfiles.type="portgraphics"/>
  <key for="port" id="d2" yfiles.type="portgeometry"/>
  <key for="port" id="d3" yfiles.type="portuserdata"/>
  <key attr.name="url" attr.type="string" for="node" id="d4"/>
  <key attr.name="description" attr.type="string" for="node" id="d5"/>
  <key for="node" id="d6" yfiles.type="nodegraphics"/>
  <key attr.name="Description" attr.type="string" for="graph" id="d7"/>
  <key attr.name="url" attr.type="string" for="edge" id="d8"/>
  <key attr.name="description" attr.type="string" for="edge" id="d9"/>
  <key for="edge" id="d10" yfiles.type="edgegraphics"/>
  <graph edgedefault="directed" id="G">
    <data key="d7"/>
    <node id="n0" yfiles.foldertype="group">
      <data key="d5"/>
      <data key="d6">
        <y:TableNode configuration="YED_TABLE_NODE">
          <y:Geometry height="1293.7291666666665" width="1248.619140625" x="-177.9287109375" y="47.83333333333326"/>
          <y:Fill color="#ECF5FF" color2="#0042F440" transparent="false"/>
          <y:BorderStyle color="#000000" type="line" width="1.0"/>
          <y:NodeLabel alignment="center" autoSizePolicy="content" fontFamily="Dialog" fontSize="15" fontStyle="plain" hasBackgroundColor="false" hasLineColor="false" height="21.666015625" modelName="internal" modelPosition="t" textColor="#000000" visible="true" width="272.2861328125" x="488.16650390625" y="4.0">Generate multiple output documents</y:NodeLabel>
          <y:NodeLabel alignment="center" autoSizePolicy="content" fontFamily="Dialog" fontSize="12" fontStyle="plain" hasBackgroundColor="false" hasLineColor="false" height="18.1328125" modelName="custom" rotationAngle="270.0" textColor="#000000" visible="true" width="68.974609375" x="3.0" y="108.0126953125">Initial State<y:LabelModel>
              <y:RowNodeLabelModel offset="3.0"/>
            </y:LabelModel>
            <y:ModelParameter>
              <y:RowNodeLabelModelParameter horizontalPosition="0.0" id="row_0" inside="true"/>
            </y:ModelParameter>
          </y:NodeLabel>
          <y:NodeLabel alignment="center" autoSizePolicy="content" fontFamily="Dialog" fontSize="12" fontStyle="plain" hasBackgroundColor="false" hasLineColor="false" height="18.1328125" modelName="custom" rotationAngle="270.0" textColor="#000000" visible="true" width="180.26171875" x="3.0" y="540.728515625">Create builder and documents<y:LabelModel>
              <y:RowNodeLabelModel offset="3.0"/>
            </y:LabelModel>
            <y:ModelParameter>
              <y:RowNodeLabelModelParameter horizontalPosition="0.0" id="row_1" inside="true"/>
            </y:ModelParameter>
          </y:NodeLabel>
          <y:NodeLabel alignment="center" autoSizePolicy="content" fontFamily="Dialog" fontSize="12" fontStyle="plain" hasBackgroundColor="false" hasLineColor="false" height="18.1328125" modelName="custom" textColor="#000000" visible="true" width="62.423828125" x="79.59765625" y="33.0">Controller<y:LabelModel>
              <y:ColumnNodeLabelModel offset="3.0"/>
            </y:LabelModel>
            <y:ModelParameter>
              <y:ColumnNodeLabelModelParameter id="column_0" inside="true" verticalPosition="0.0"/>
            </y:ModelParameter>
          </y:NodeLabel>
          <y:NodeLabel alignment="center" autoSizePolicy="content" fontFamily="Dialog" fontSize="12" fontStyle="plain" hasBackgroundColor="false" hasLineColor="false" height="18.1328125" modelName="custom" textColor="#000000" visible="true" width="154.638671875" x="240.2373046875" y="33.0">OutputDocumentManager<y:LabelModel>
              <y:ColumnNodeLabelModel offset="3.0"/>
            </y:LabelModel>
            <y:ModelParameter>
              <y:ColumnNodeLabelModelParameter id="column_1" inside="true" verticalPosition="0.0"/>
            </y:ModelParameter>
          </y:NodeLabel>
          <y:NodeLabel alignment="center" autoSizePolicy="content" fontFamily="Dialog" fontSize="12" fontStyle="plain" hasBackgroundColor="false" hasLineColor="false" height="18.1328125" modelName="custom" textColor="#000000" visible="true" width="130.08203125" x="969.265625" y="33.0">Zip Document Builder<y:LabelModel>
              <y:ColumnNodeLabelModel offset="3.0"/>
            </y:LabelModel>
            <y:ModelParameter>
              <y:ColumnNodeLabelModelParameter id="column_2" inside="true" verticalPosition="0.0"/>
            </y:ModelParameter>
          </y:NodeLabel>
          <y:NodeLabel alignment="center" autoSizePolicy="content" fontFamily="Dialog" fontSize="12" fontStyle="plain" hasBackgroundColor="false" hasLineColor="false" height="18.1328125" modelName="custom" textColor="#000000" visible="true" width="108.009765625" x="487.11425781249994" y="33.0">Document Builder<y:LabelModel>
              <y:ColumnNodeLabelModel offset="3.0"/>
            </y:LabelModel>
            <y:ModelParameter>
              <y:ColumnNodeLabelModelParameter id="column_3" inside="true" verticalPosition="0.0"/>
            </y:ModelParameter>
          </y:NodeLabel>
          <y:NodeLabel alignment="center" autoSizePolicy="content" fontFamily="Dialog" fontSize="12" fontStyle="plain" hasBackgroundColor="false" hasLineColor="false" height="18.1328125" modelName="custom" rotationAngle="270.0" textColor="#000000" visible="true" width="119.775390625" x="3.0" y="1048.3857421875">Generate Document<y:LabelModel>
              <y:RowNodeLabelModel offset="3.0"/>
            </y:LabelModel>
            <y:ModelParameter>
              <y:RowNodeLabelModelParameter horizontalPosition="0.0" id="row_2" inside="true"/>
            </y:ModelParameter>
          </y:NodeLabel>
          <y:NodeLabel alignment="center" autoSizePolicy="content" fontFamily="Dialog" fontSize="12" fontStyle="plain" hasBackgroundColor="false" hasLineColor="false" height="18.1328125" modelName="custom" rotationAngle="270.0" textColor="#000000" visible="true" width="63.994140625" x="3.0" y="1207.7815755208333">Final State<y:LabelModel>
              <y:RowNodeLabelModel offset="3.0"/>
            </y:LabelModel>
            <y:ModelParameter>
              <y:RowNodeLabelModelParameter horizontalPosition="0.0" id="row_3" inside="true"/>
            </y:ModelParameter>
          </y:NodeLabel>
          <y:NodeLabel alignment="center" autoSizePolicy="content" fontFamily="Dialog" fontSize="12" fontStyle="plain" hasBackgroundColor="false" hasLineColor="false" height="18.1328125" modelName="custom" textColor="#000000" visible="true" width="69.87109375" x="697.4335937499999" y="33.0">Application<y:LabelModel>
              <y:ColumnNodeLabelModel offset="3.0"/>
            </y:LabelModel>
            <y:ModelParameter>
              <y:ColumnNodeLabelModelParameter id="column_4" inside="true" verticalPosition="0.0"/>
            </y:ModelParameter>
          </y:NodeLabel>
          <y:StyleProperties>
            <y:Property class="java.awt.Color" name="yed.table.header.color.main" value="#c4d7ed"/>
            <y:Property class="java.awt.Color" name="yed.table.section.color" value="#7192b2"/>
            <y:Property class="java.lang.String" name="yed.table.lane.style" value="lane.style.rows"/>
            <y:Property class="java.awt.Color" name="yed.table.lane.color.alternating" value="#abc8e2"/>
            <y:Property class="java.awt.Color" name="yed.table.header.color.alternating" value="#abc8e2"/>
            <y:Property class="java.awt.Color" name="yed.table.lane.color.main" value="#c4d7ed"/>
            <y:Property class="java.lang.Double" name="yed.table.header.height" value="24.0"/>
          </y:StyleProperties>
          <y:State autoResize="true" closed="false" closedHeight="80.0" closedWidth="100.0"/>
          <y:Insets bottom="0" bottomF="0.0" left="0" leftF="0.0" right="0" rightF="0.0" top="0" topF="0.0"/>
          <y:BorderInsets bottom="45" bottomF="45.0" left="12" leftF="11.73383593750009" right="46" rightF="46.25" top="30" topF="30.0"/>
          <y:Table autoResizeTable="true" defaultColumnWidth="120.0" defaultMinimumColumnWidth="50.0" defaultMinimumRowHeight="50.0" defaultRowHeight="80.0">
            <y:DefaultColumnInsets bottom="0.0" left="0.0" right="0.0" top="24.0"/>
            <y:DefaultRowInsets bottom="0.0" left="24.0" right="0.0" top="0.0"/>
            <y:Insets bottom="0.0" left="0.0" right="0.0" top="30.0"/>
            <y:Columns>
              <y:Column id="column_0" minimumWidth="50.0" width="173.619140625">
                <y:Insets bottom="0.0" left="0.0" right="0.0" top="24.0"/>
              </y:Column>
              <y:Column id="column_1" minimumWidth="50.0" width="239.875">
                <y:Insets bottom="0.0" left="0.0" right="0.0" top="24.0"/>
              </y:Column>
              <y:Column id="column_3" minimumWidth="50.0" width="207.2499999999999">
                <y:Insets bottom="0.0" left="0.0" right="0.0" top="24.0"/>
              </y:Column>
              <y:Column id="column_4" minimumWidth="50.0" width="175.25">
                <y:Insets bottom="0.0" left="0.0" right="0.0" top="24.0"/>
              </y:Column>
              <y:Column id="column_2" minimumWidth="50.0" width="428.6250000000001">
                <y:Insets bottom="0.0" left="0.0" right="0.0" top="24.0"/>
              </y:Column>
            </y:Columns>
            <y:Rows>
              <y:Row height="177.0" id="row_0" minimumHeight="50.0">
                <y:Insets bottom="0.0" left="24.0" right="0.0" top="0.0"/>
              </y:Row>
              <y:Row height="799.71875" id="row_1" minimumHeight="50.0">
                <y:Insets bottom="0.0" left="24.0" right="0.0" top="0.0"/>
              </y:Row>
              <y:Row height="155.1093750000001" id="row_2" minimumHeight="50.0">
                <y:Insets bottom="0.0" left="24.0" right="0.0" top="0.0"/>
              </y:Row>
              <y:Row height="107.90104166666652" id="row_3" minimumHeight="50.0">
                <y:Insets bottom="0.0" left="24.0" right="0.0" top="0.0"/>
              </y:Row>
            </y:Rows>
          </y:Table>
        </y:TableNode>
      </data>
      <graph edgedefault="directed" id="n0:">
        <node id="n0::n0" yfiles.foldertype="group">
          <data key="d5"/>
          <data key="d6">
            <y:ProxyAutoBoundsNode>
              <y:Realizers active="0">
                <y:GenericGroupNode configuration="com.yworks.bpmn.Artifact.withShadow">
                  <y:Geometry height="652.2499999999998" width="977.75" x="46.6904296875" y="398.8333333333332"/>
                  <y:Fill color="#FFFFFFE6" transparent="false"/>
                  <y:BorderStyle color="#000000" type="dashed_dotted" width="1.0"/>
                  <y:NodeLabel alignment="center" autoSizePolicy="content" fontFamily="Dialog" fontSize="12" fontStyle="plain" hasBackgroundColor="false" hasLineColor="false" height="18.1328125" modelName="custom" textColor="#000000" visible="true" width="146.69921875" x="415.525390625" y="-28.399739583333655">&lt;&lt; Loop documents &gt;&gt;<y:LabelModel>
                      <y:SmartNodeLabelModel distance="4.0"/>
                    </y:LabelModel>
                    <y:ModelParameter>
                      <y:SmartNodeLabelModelParameter labelRatioX="0.0" labelRatioY="0.5" nodeRatioX="0.0" nodeRatioY="-0.5" offsetX="0.0" offsetY="-10.266927083333599" upX="0.0" upY="-1.0"/>
                    </y:ModelParameter>
                  </y:NodeLabel>
                  <y:StyleProperties>
                    <y:Property class="com.yworks.yfiles.bpmn.view.BPMNTypeEnum" name="com.yworks.bpmn.type" value="ARTIFACT_TYPE_GROUP"/>
                    <y:Property class="java.awt.Color" name="com.yworks.bpmn.icon.line.color" value="#000000"/>
                    <y:Property class="java.awt.Color" name="com.yworks.bpmn.icon.fill" value="#ffffffe6"/>
                    <y:Property class="java.awt.Color" name="com.yworks.bpmn.icon.fill2" value="#d4d4d4cc"/>
                  </y:StyleProperties>
                  <y:State autoResize="true" closed="false" closedHeight="80.0" closedWidth="100.0"/>
                  <y:Insets bottom="15" bottomF="15.0" left="15" leftF="15.0" right="15" rightF="15.0" top="15" topF="15.0"/>
                  <y:BorderInsets bottom="10" bottomF="10.083333333333485" left="0" leftF="0.0" right="10" rightF="9.690429687499545" top="7" topF="6.6666666666663446"/>
                </y:GenericGroupNode>
                <y:GenericGroupNode configuration="com.yworks.bpmn.Artifact.withShadow">
                  <y:Geometry height="55.0" width="85.0" x="657.1904296875" y="409.0"/>
                  <y:Fill color="#FFFFFFE6" transparent="false"/>
                  <y:BorderStyle color="#000000" type="dashed_dotted" width="1.0"/>
                  <y:NodeLabel alignment="center" autoSizePolicy="content" fontFamily="Dialog" fontSize="12" fontStyle="plain" hasBackgroundColor="false" hasLineColor="false" hasText="false" height="4.0" modelName="custom" textColor="#000000" visible="true" width="4.0" x="40.5" y="47.0">
                    <y:LabelModel>
                      <y:SmartNodeLabelModel distance="4.0"/>
                    </y:LabelModel>
                    <y:ModelParameter>
                      <y:SmartNodeLabelModelParameter labelRatioX="0.0" labelRatioY="0.5" nodeRatioX="0.0" nodeRatioY="0.5" offsetX="0.0" offsetY="-4.0" upX="0.0" upY="-1.0"/>
                    </y:ModelParameter>
                  </y:NodeLabel>
                  <y:StyleProperties>
                    <y:Property class="com.yworks.yfiles.bpmn.view.BPMNTypeEnum" name="com.yworks.bpmn.type" value="ARTIFACT_TYPE_GROUP"/>
                    <y:Property class="java.awt.Color" name="com.yworks.bpmn.icon.line.color" value="#000000"/>
                    <y:Property class="java.awt.Color" name="com.yworks.bpmn.icon.fill" value="#ffffffe6"/>
                    <y:Property class="java.awt.Color" name="com.yworks.bpmn.icon.fill2" value="#d4d4d4cc"/>
                  </y:StyleProperties>
                  <y:State autoResize="true" closed="false" closedHeight="80.0" closedWidth="100.0"/>
                  <y:Insets bottom="15" bottomF="15.0" left="15" leftF="15.0" right="15" rightF="15.0" top="15" topF="15.0"/>
                  <y:BorderInsets bottom="0" bottomF="0.0" left="0" leftF="0.0" right="0" rightF="0.0" top="0" topF="0.0"/>
                </y:GenericGroupNode>
              </y:Realizers>
            </y:ProxyAutoBoundsNode>
          </data>
          <graph edgedefault="directed" id="n0::n0:">
            <node id="n0::n0::n0">
              <data key="d5"/>
              <data key="d6">
                <y:GenericNode configuration="com.yworks.flowchart.process">
                  <y:Geometry height="40.0" width="150.0" x="689.6904296875" y="420.49999999999955"/>
                  <y:Fill color="#E8EEF7" color2="#B7C9E3" transparent="false"/>
                  <y:BorderStyle color="#000000" type="line" width="1.0"/>
                  <y:NodeLabel alignment="center" autoSizePolicy="content" fontFamily="Dialog" fontSize="12" fontStyle="plain" hasBackgroundColor="false" hasLineColor="false" height="18.1328125" modelName="custom" textColor="#000000" visible="true" width="85.984375" x="32.0078125" y="10.93359375">Get document<y:LabelModel>
                      <y:SmartNodeLabelModel distance="4.0"/>
                    </y:LabelModel>
                    <y:ModelParameter>
                      <y:SmartNodeLabelModelParameter labelRatioX="0.0" labelRatioY="0.0" nodeRatioX="0.0" nodeRatioY="0.0" offsetX="0.0" offsetY="0.0" upX="0.0" upY="-1.0"/>
                    </y:ModelParameter>
                  </y:NodeLabel>
                </y:GenericNode>
              </data>
            </node>
            <node id="n0::n0::n1">
              <data key="d5"/>
              <data key="d6">
                <y:GenericNode configuration="com.yworks.flowchart.process">
                  <y:Geometry height="40.0" width="150.0" x="61.6904296875" y="420.49999999999955"/>
                  <y:Fill color="#E8EEF7" color2="#B7C9E3" transparent="false"/>
                  <y:BorderStyle color="#000000" type="line" width="1.0"/>
                  <y:NodeLabel alignment="center" autoSizePolicy="content" fontFamily="Dialog" fontSize="12" fontStyle="plain" hasBackgroundColor="false" hasLineColor="false" height="18.1328125" modelName="custom" textColor="#000000" visible="true" width="68.728515625" x="40.6357421875" y="10.93359375">Get builder<y:LabelModel>
                      <y:SmartNodeLabelModel distance="4.0"/>
                    </y:LabelModel>
                    <y:ModelParameter>
                      <y:SmartNodeLabelModelParameter labelRatioX="0.0" labelRatioY="0.0" nodeRatioX="0.0" nodeRatioY="0.0" offsetX="0.0" offsetY="0.0" upX="0.0" upY="-1.0"/>
                    </y:ModelParameter>
                  </y:NodeLabel>
                </y:GenericNode>
              </data>
            </node>
            <node id="n0::n0::n2">
              <data key="d5"/>
              <data key="d6">
                <y:GenericNode configuration="com.yworks.flowchart.process">
                  <y:Geometry height="40.0" width="150.0" x="665.9404296875" y="985.9999999999995"/>
                  <y:Fill color="#E8EEF7" color2="#B7C9E3" transparent="false"/>
                  <y:BorderStyle color="#000000" type="line" width="1.0"/>
                  <y:NodeLabel alignment="center" autoSizePolicy="content" fontFamily="Dialog" fontSize="12" fontStyle="plain" hasBackgroundColor="false" hasLineColor="false" height="18.1328125" modelName="custom" textColor="#000000" visible="true" width="138.501953125" x="5.7490234375" y="10.93359375">Add file to zip package<y:LabelModel>
                      <y:SmartNodeLabelModel distance="4.0"/>
                    </y:LabelModel>
                    <y:ModelParameter>
                      <y:SmartNodeLabelModelParameter labelRatioX="0.0" labelRatioY="0.0" nodeRatioX="0.0" nodeRatioY="0.0" offsetX="0.0" offsetY="0.0" upX="0.0" upY="-1.0"/>
                    </y:ModelParameter>
                  </y:NodeLabel>
                </y:GenericNode>
              </data>
            </node>
            <node id="n0::n0::n3">
              <data key="d5"/>
              <data key="d6">
                <y:GenericNode configuration="com.yworks.flowchart.decision">
                  <y:Geometry height="40.0" width="80.0" x="700.9404296875" y="883.9999999999995"/>
                  <y:Fill color="#E8EEF7" color2="#B7C9E3" transparent="false"/>
                  <y:BorderStyle color="#000000" type="line" width="1.0"/>
                  <y:NodeLabel alignment="center" autoSizePolicy="content" fontFamily="Dialog" fontSize="12" fontStyle="plain" hasBackgroundColor="false" hasLineColor="false" height="18.1328125" modelName="custom" textColor="#000000" visible="true" width="62.166015625" x="-44.09462721720706" y="-9.06640625">Is zip file?<y:LabelModel>
                      <y:SmartNodeLabelModel distance="4.0"/>
                    </y:LabelModel>
                    <y:ModelParameter>
                      <y:SmartNodeLabelModelParameter labelRatioX="0.20930438075999913" labelRatioY="0.0" nodeRatioX="-0.5" nodeRatioY="-0.5" offsetX="0.0" offsetY="0.0" upX="0.0" upY="-1.0"/>
                    </y:ModelParameter>
                  </y:NodeLabel>
                </y:GenericNode>
              </data>
            </node>
            <node id="n0::n0::n4">
              <data key="d5"/>
              <data key="d6">
                <y:GenericNode configuration="com.yworks.flowchart.process">
                  <y:Geometry height="40.0" width="129.0" x="870.7500000000005" y="883.9999999999995"/>
                  <y:Fill color="#E8EEF7" color2="#B7C9E3" transparent="false"/>
                  <y:BorderStyle color="#000000" type="line" width="1.0"/>
                  <y:NodeLabel alignment="center" autoSizePolicy="content" fontFamily="Dialog" fontSize="12" fontStyle="plain" hasBackgroundColor="false" hasLineColor="false" height="18.1328125" modelName="custom" textColor="#000000" visible="true" width="72.47265625" x="28.263671875" y="10.93359375">Extract files<y:LabelModel>
                      <y:SmartNodeLabelModel distance="4.0"/>
                    </y:LabelModel>
                    <y:ModelParameter>
                      <y:SmartNodeLabelModelParameter labelRatioX="0.0" labelRatioY="0.0" nodeRatioX="0.0" nodeRatioY="0.0" offsetX="0.0" offsetY="0.0" upX="0.0" upY="-1.0"/>
                    </y:ModelParameter>
                  </y:NodeLabel>
                </y:GenericNode>
              </data>
            </node>
            <node id="n0::n0::n5">
              <data key="d5"/>
              <data key="d6">
                <y:GenericNode configuration="com.yworks.flowchart.decision">
                  <y:Geometry height="40.0" width="80.0" x="700.9404296875" y="740.999999999999"/>
                  <y:Fill color="#E8EEF7" color2="#B7C9E3" transparent="false"/>
                  <y:BorderStyle color="#000000" type="line" width="1.0"/>
                  <y:NodeLabel alignment="center" autoSizePolicy="content" fontFamily="Dialog" fontSize="12" fontStyle="plain" hasBackgroundColor="false" hasLineColor="false" height="18.1328125" modelName="custom" textColor="#000000" visible="true" width="82.451171875" x="-1.2255859375" y="-22.1328125">Is temporary?<y:LabelModel>
                      <y:SmartNodeLabelModel distance="4.0"/>
                    </y:LabelModel>
                    <y:ModelParameter>
                      <y:SmartNodeLabelModelParameter labelRatioX="0.0" labelRatioY="0.5" nodeRatioX="0.0" nodeRatioY="-0.5" offsetX="0.0" offsetY="-4.0" upX="0.0" upY="-1.0"/>
                    </y:ModelParameter>
                  </y:NodeLabel>
                </y:GenericNode>
              </data>
            </node>
            <node id="n0::n0::n6">
              <data key="d5"/>
              <data key="d6">
                <y:GenericNode configuration="com.yworks.flowchart.process">
                  <y:Geometry height="40.0" width="129.0" x="870.7500000000005" y="740.999999999999"/>
                  <y:Fill color="#E8EEF7" color2="#B7C9E3" transparent="false"/>
                  <y:BorderStyle color="#000000" type="line" width="1.0"/>
                  <y:NodeLabel alignment="center" autoSizePolicy="content" fontFamily="Dialog" fontSize="12" fontStyle="plain" hasBackgroundColor="false" hasLineColor="false" height="18.1328125" modelName="custom" textColor="#000000" visible="true" width="115.6328125" x="6.68359375" y="10.93359375">Save temporary file<y:LabelModel>
                      <y:SmartNodeLabelModel distance="4.0"/>
                    </y:LabelModel>
                    <y:ModelParameter>
                      <y:SmartNodeLabelModelParameter labelRatioX="0.0" labelRatioY="0.0" nodeRatioX="0.0" nodeRatioY="0.0" offsetX="0.0" offsetY="0.0" upX="0.0" upY="-1.0"/>
                    </y:ModelParameter>
                  </y:NodeLabel>
                </y:GenericNode>
              </data>
            </node>
            <node id="n0::n0::n7">
              <data key="d5"/>
              <data key="d6">
                <y:GenericNode configuration="com.yworks.flowchart.process">
                  <y:Geometry height="40.0" width="158.0" x="278.09521484375" y="586.8333333333333"/>
                  <y:Fill color="#E8EEF7" color2="#B7C9E3" transparent="false"/>
                  <y:BorderStyle color="#000000" type="line" width="1.0"/>
                  <y:NodeLabel alignment="center" autoSizePolicy="content" fontFamily="Dialog" fontSize="12" fontStyle="plain" hasBackgroundColor="false" hasLineColor="false" height="18.1328125" modelName="custom" textColor="#000000" visible="true" width="96.4140625" x="30.79296875" y="10.93359375">Build Document<y:LabelModel>
                      <y:SmartNodeLabelModel distance="4.0"/>
                    </y:LabelModel>
                    <y:ModelParameter>
                      <y:SmartNodeLabelModelParameter labelRatioX="0.0" labelRatioY="0.0" nodeRatioX="0.0" nodeRatioY="0.0" offsetX="0.0" offsetY="0.0" upX="0.0" upY="-1.0"/>
                    </y:ModelParameter>
                  </y:NodeLabel>
                </y:GenericNode>
              </data>
            </node>
            <node id="n0::n0::n8">
              <data key="d5"/>
              <data key="d6">
                <y:GenericNode configuration="com.yworks.flowchart.process">
                  <y:Geometry height="40.0" width="150.0" x="61.6904296875" y="659.1666666666658"/>
                  <y:Fill color="#E8EEF7" color2="#B7C9E3" transparent="false"/>
                  <y:BorderStyle color="#000000" type="line" width="1.0"/>
                  <y:NodeLabel alignment="center" autoSizePolicy="content" fontFamily="Dialog" fontSize="12" fontStyle="plain" hasBackgroundColor="false" hasLineColor="false" height="18.1328125" modelName="custom" textColor="#000000" visible="true" width="67.462890625" x="41.2685546875" y="10.93359375">Send event<y:LabelModel>
                      <y:SmartNodeLabelModel distance="4.0"/>
                    </y:LabelModel>
                    <y:ModelParameter>
                      <y:SmartNodeLabelModelParameter labelRatioX="0.0" labelRatioY="0.0" nodeRatioX="0.0" nodeRatioY="0.0" offsetX="0.0" offsetY="0.0" upX="0.0" upY="-1.0"/>
                    </y:ModelParameter>
                  </y:NodeLabel>
                </y:GenericNode>
              </data>
            </node>
            <node id="n0::n0::n9">
              <data key="d5"/>
              <data key="d6">
                <y:GenericNode configuration="com.yworks.flowchart.process">
                  <y:Geometry height="40.0" width="121.0" x="491.25" y="659.1666666666658"/>
                  <y:Fill color="#E8EEF7" color2="#B7C9E3" transparent="false"/>
                  <y:BorderStyle color="#000000" type="line" width="1.0"/>
                  <y:NodeLabel alignment="center" autoSizePolicy="content" fontFamily="Dialog" fontSize="12" fontStyle="plain" hasBackgroundColor="false" hasLineColor="false" height="18.1328125" modelName="custom" textColor="#000000" visible="true" width="43.41015625" x="38.794921875" y="10.93359375">Modify<y:LabelModel>
                      <y:SmartNodeLabelModel distance="4.0"/>
                    </y:LabelModel>
                    <y:ModelParameter>
                      <y:SmartNodeLabelModelParameter labelRatioX="0.0" labelRatioY="0.0" nodeRatioX="0.0" nodeRatioY="0.0" offsetX="0.0" offsetY="0.0" upX="0.0" upY="-1.0"/>
                    </y:ModelParameter>
                  </y:NodeLabel>
                </y:GenericNode>
              </data>
            </node>
            <node id="n0::n0::n10">
              <data key="d5"/>
              <data key="d6">
                <y:GenericNode configuration="com.yworks.flowchart.decision">
                  <y:Geometry height="40.0" width="80.0" x="96.6904296875" y="740.999999999999"/>
                  <y:Fill color="#E8EEF7" color2="#B7C9E3" transparent="false"/>
                  <y:BorderStyle color="#000000" type="line" width="1.0"/>
                  <y:NodeLabel alignment="center" autoSizePolicy="content" fontFamily="Dialog" fontSize="12" fontStyle="plain" hasBackgroundColor="false" hasLineColor="false" height="18.1328125" modelName="custom" textColor="#000000" visible="true" width="82.451171875" x="-1.2255859375" y="-22.1328125">Is temporary?<y:LabelModel>
                      <y:SmartNodeLabelModel distance="4.0"/>
                    </y:LabelModel>
                    <y:ModelParameter>
                      <y:SmartNodeLabelModelParameter labelRatioX="0.0" labelRatioY="0.5" nodeRatioX="0.0" nodeRatioY="-0.5" offsetX="0.0" offsetY="-4.0" upX="0.0" upY="-1.0"/>
                    </y:ModelParameter>
                  </y:NodeLabel>
                </y:GenericNode>
              </data>
            </node>
            <node id="n0::n0::n11">
              <data key="d5"/>
              <data key="d6">
                <y:GenericNode configuration="com.yworks.flowchart.process">
                  <y:Geometry height="40.0" width="142.0" x="65.6904296875" y="822.8333333333321"/>
                  <y:Fill color="#E8EEF7" color2="#B7C9E3" transparent="false"/>
                  <y:BorderStyle color="#000000" type="line" width="1.0"/>
                  <y:NodeLabel alignment="center" autoSizePolicy="content" fontFamily="Dialog" fontSize="12" fontStyle="plain" hasBackgroundColor="false" hasLineColor="false" height="18.1328125" modelName="custom" textColor="#000000" visible="true" width="104.341796875" x="18.8291015625" y="10.93359375">Mark for deletion<y:LabelModel>
                      <y:SmartNodeLabelModel distance="4.0"/>
                    </y:LabelModel>
                    <y:ModelParameter>
                      <y:SmartNodeLabelModelParameter labelRatioX="0.0" labelRatioY="0.0" nodeRatioX="0.0" nodeRatioY="0.0" offsetX="0.0" offsetY="0.0" upX="0.0" upY="-1.0"/>
                    </y:ModelParameter>
                  </y:NodeLabel>
                </y:GenericNode>
              </data>
            </node>
          </graph>
        </node>
        <node id="n0::n1">
          <data key="d5"/>
          <data key="d6">
            <y:GenericNode configuration="com.yworks.flowchart.start2">
              <y:Geometry height="40.0" width="80.0" x="-108.0595703125" y="131.83333333333326"/>
              <y:Fill color="#E8EEF7" color2="#B7C9E3" transparent="false"/>
              <y:BorderStyle color="#000000" type="line" width="1.0"/>
              <y:NodeLabel alignment="center" autoSizePolicy="content" fontFamily="Dialog" fontSize="12" fontStyle="plain" hasBackgroundColor="false" hasLineColor="false" hasText="false" height="4.0" modelName="custom" textColor="#000000" visible="true" width="4.0" x="38.0" y="18.0">
                <y:LabelModel>
                  <y:SmartNodeLabelModel distance="4.0"/>
                </y:LabelModel>
                <y:ModelParameter>
                  <y:SmartNodeLabelModelParameter labelRatioX="0.0" labelRatioY="0.0" nodeRatioX="0.0" nodeRatioY="0.0" offsetX="0.0" offsetY="0.0" upX="0.0" upY="-1.0"/>
                </y:ModelParameter>
              </y:NodeLabel>
            </y:GenericNode>
          </data>
        </node>
        <node id="n0::n2">
          <data key="d5"/>
          <data key="d6">
            <y:GenericNode configuration="com.yworks.flowchart.process">
              <y:Geometry height="40.0" width="129.0" x="-132.5595703125" y="201.83333333333326"/>
              <y:Fill color="#E8EEF7" color2="#B7C9E3" transparent="false"/>
              <y:BorderStyle color="#000000" type="line" width="1.0"/>
              <y:NodeLabel alignment="center" autoSizePolicy="content" fontFamily="Dialog" fontSize="12" fontStyle="plain" hasBackgroundColor="false" hasLineColor="false" height="18.1328125" modelName="custom" textColor="#000000" visible="true" width="107.78125" x="10.609375" y="10.93359375">Generate multiple<y:LabelModel>
                  <y:SmartNodeLabelModel distance="4.0"/>
                </y:LabelModel>
                <y:ModelParameter>
                  <y:SmartNodeLabelModelParameter labelRatioX="0.0" labelRatioY="0.0" nodeRatioX="0.0" nodeRatioY="0.0" offsetX="0.0" offsetY="0.0" upX="0.0" upY="-1.0"/>
                </y:ModelParameter>
              </y:NodeLabel>
            </y:GenericNode>
          </data>
        </node>
        <node id="n0::n3">
          <data key="d5"/>
          <data key="d6">
            <y:GenericNode configuration="com.yworks.flowchart.process">
              <y:Geometry height="40.0" width="184.6875" x="46.6904296875" y="299.83333333333326"/>
              <y:Fill color="#E8EEF7" color2="#B7C9E3" transparent="false"/>
              <y:BorderStyle color="#000000" type="line" width="1.0"/>
              <y:NodeLabel alignment="center" autoSizePolicy="content" fontFamily="Dialog" fontSize="12" fontStyle="plain" hasBackgroundColor="false" hasLineColor="false" height="18.1328125" modelName="custom" textColor="#000000" visible="true" width="134.171875" x="25.2578125" y="10.93359375">Get Zip Builder service<y:LabelModel>
                  <y:SmartNodeLabelModel distance="4.0"/>
                </y:LabelModel>
                <y:ModelParameter>
                  <y:SmartNodeLabelModelParameter labelRatioX="0.0" labelRatioY="0.0" nodeRatioX="0.0" nodeRatioY="0.0" offsetX="0.0" offsetY="0.0" upX="0.0" upY="-1.0"/>
                </y:ModelParameter>
              </y:NodeLabel>
            </y:GenericNode>
          </data>
        </node>
        <node id="n0::n4">
          <data key="d5"/>
          <data key="d6">
            <y:GenericNode configuration="com.yworks.flowchart.process">
              <y:Geometry height="40.0" width="194.9999999999999" x="667.1904296875001" y="299.83333333333326"/>
              <y:Fill color="#E8EEF7" color2="#B7C9E3" transparent="false"/>
              <y:BorderStyle color="#000000" type="line" width="1.0"/>
              <y:NodeLabel alignment="center" autoSizePolicy="content" fontFamily="Dialog" fontSize="12" fontStyle="plain" hasBackgroundColor="false" hasLineColor="false" height="18.1328125" modelName="custom" textColor="#000000" visible="true" width="129.021484375" x="32.989257812499886" y="10.93359375">Get list of documents<y:LabelModel>
                  <y:SmartNodeLabelModel distance="4.0"/>
                </y:LabelModel>
                <y:ModelParameter>
                  <y:SmartNodeLabelModelParameter labelRatioX="0.0" labelRatioY="0.0" nodeRatioX="0.0" nodeRatioY="0.0" offsetX="0.0" offsetY="0.0" upX="0.0" upY="-1.0"/>
                </y:ModelParameter>
              </y:NodeLabel>
            </y:GenericNode>
          </data>
        </node>
        <node id="n0::n5">
          <data key="d5"/>
          <data key="d6">
            <y:GenericNode configuration="com.yworks.flowchart.process">
              <y:Geometry height="40.0" width="194.9999999999999" x="665.9404296875" y="1125.708333333333"/>
              <y:Fill color="#E8EEF7" color2="#B7C9E3" transparent="false"/>
              <y:BorderStyle color="#000000" type="line" width="1.0"/>
              <y:NodeLabel alignment="center" autoSizePolicy="content" fontFamily="Dialog" fontSize="12" fontStyle="plain" hasBackgroundColor="false" hasLineColor="false" height="18.1328125" modelName="custom" textColor="#000000" visible="true" width="160.931640625" x="17.0341796875" y="10.93359375">Generate output document<y:LabelModel>
                  <y:SmartNodeLabelModel distance="4.0"/>
                </y:LabelModel>
                <y:ModelParameter>
                  <y:SmartNodeLabelModelParameter labelRatioX="0.0" labelRatioY="0.0" nodeRatioX="0.0" nodeRatioY="0.0" offsetX="0.0" offsetY="0.0" upX="0.0" upY="-1.0"/>
                </y:ModelParameter>
              </y:NodeLabel>
            </y:GenericNode>
          </data>
        </node>
        <node id="n0::n6">
          <data key="d5"/>
          <data key="d6">
            <y:GenericNode configuration="com.yworks.flowchart.process">
              <y:Geometry height="40.0" width="150.0" x="61.6904296875" y="495.49999999999955"/>
              <y:Fill color="#E8EEF7" color2="#B7C9E3" transparent="false"/>
              <y:BorderStyle color="#000000" type="line" width="1.0"/>
              <y:NodeLabel alignment="center" autoSizePolicy="content" fontFamily="Dialog" fontSize="12" fontStyle="plain" hasBackgroundColor="false" hasLineColor="false" height="18.1328125" modelName="custom" textColor="#000000" visible="true" width="67.462890625" x="41.2685546875" y="10.93359375">Send event<y:LabelModel>
                  <y:SmartNodeLabelModel distance="4.0"/>
                </y:LabelModel>
                <y:ModelParameter>
                  <y:SmartNodeLabelModelParameter labelRatioX="0.0" labelRatioY="0.0" nodeRatioX="0.0" nodeRatioY="0.0" offsetX="0.0" offsetY="0.0" upX="0.0" upY="-1.0"/>
                </y:ModelParameter>
              </y:NodeLabel>
            </y:GenericNode>
          </data>
        </node>
        <node id="n0::n7">
          <data key="d5"/>
          <data key="d6">
            <y:GenericNode configuration="com.yworks.flowchart.process">
              <y:Geometry height="40.0" width="121.0" x="491.25" y="495.49999999999955"/>
              <y:Fill color="#E8EEF7" color2="#B7C9E3" transparent="false"/>
              <y:BorderStyle color="#000000" type="line" width="1.0"/>
              <y:NodeLabel alignment="center" autoSizePolicy="content" fontFamily="Dialog" fontSize="12" fontStyle="plain" hasBackgroundColor="false" hasLineColor="false" height="18.1328125" modelName="custom" textColor="#000000" visible="true" width="43.41015625" x="38.794921875" y="10.93359375">Modify<y:LabelModel>
                  <y:SmartNodeLabelModel distance="4.0"/>
                </y:LabelModel>
                <y:ModelParameter>
                  <y:SmartNodeLabelModelParameter labelRatioX="0.0" labelRatioY="0.0" nodeRatioX="0.0" nodeRatioY="0.0" offsetX="0.0" offsetY="0.0" upX="0.0" upY="-1.0"/>
                </y:ModelParameter>
              </y:NodeLabel>
            </y:GenericNode>
          </data>
        </node>
        <node id="n0::n8">
          <data key="d5"/>
          <data key="d6">
            <y:GenericNode configuration="com.yworks.flowchart.process">
              <y:Geometry height="40.0" width="184.6875" x="46.6904296875" y="1125.708333333333"/>
              <y:Fill color="#E8EEF7" color2="#B7C9E3" transparent="false"/>
              <y:BorderStyle color="#000000" type="line" width="1.0"/>
              <y:NodeLabel alignment="center" autoSizePolicy="content" fontFamily="Dialog" fontSize="12" fontStyle="plain" hasBackgroundColor="false" hasLineColor="false" height="18.1328125" modelName="custom" textColor="#000000" visible="true" width="104.341796875" x="40.1728515625" y="10.93359375">Mark for deletion<y:LabelModel>
                  <y:SmartNodeLabelModel distance="4.0"/>
                </y:LabelModel>
                <y:ModelParameter>
                  <y:SmartNodeLabelModelParameter labelRatioX="0.0" labelRatioY="0.0" nodeRatioX="0.0" nodeRatioY="0.0" offsetX="0.0" offsetY="0.0" upX="0.0" upY="-1.0"/>
                </y:ModelParameter>
              </y:NodeLabel>
            </y:GenericNode>
          </data>
        </node>
        <node id="n0::n9">
          <data key="d5"/>
          <data key="d6">
            <y:GenericNode configuration="com.yworks.flowchart.terminator">
              <y:Geometry height="40.0" width="142.0" x="-142.1948749999999" y="1256.5624999999998"/>
              <y:Fill color="#E8EEF7" color2="#B7C9E3" transparent="false"/>
              <y:BorderStyle color="#000000" type="line" width="1.0"/>
              <y:NodeLabel alignment="center" autoSizePolicy="content" fontFamily="Dialog" fontSize="12" fontStyle="plain" hasBackgroundColor="false" hasLineColor="false" height="18.1328125" modelName="custom" textColor="#000000" visible="true" width="99.619140625" x="21.1904296875" y="10.93359375">Document ready<y:LabelModel>
                  <y:SmartNodeLabelModel distance="4.0"/>
                </y:LabelModel>
                <y:ModelParameter>
                  <y:SmartNodeLabelModelParameter labelRatioX="0.0" labelRatioY="0.0" nodeRatioX="0.0" nodeRatioY="0.0" offsetX="0.0" offsetY="0.0" upX="0.0" upY="-1.0"/>
                </y:ModelParameter>
              </y:NodeLabel>
            </y:GenericNode>
          </data>
        </node>
      </graph>
    </node>
    <edge id="n0::e0" source="n0::n1" target="n0::n2">
      <data key="d9"/>
      <data key="d10">
        <y:PolyLineEdge>
          <y:Path sx="0.0" sy="0.0" tx="0.0" ty="0.0"/>
          <y:LineStyle color="#000000" type="line" width="1.0"/>
          <y:Arrows source="none" target="standard"/>
          <y:BendStyle smoothed="false"/>
        </y:PolyLineEdge>
      </data>
    </edge>
    <edge id="n0::e1" source="n0::n2" target="n0::n3">
      <data key="d9"/>
      <data key="d10">
        <y:PolyLineEdge>
          <y:Path sx="0.0" sy="0.0" tx="0.0" ty="0.0">
            <y:Point x="139.0341796875" y="221.83333333333326"/>
          </y:Path>
          <y:LineStyle color="#000000" type="line" width="1.0"/>
          <y:Arrows source="none" target="standard"/>
          <y:BendStyle smoothed="false"/>
        </y:PolyLineEdge>
      </data>
    </edge>
    <edge id="n0::e2" source="n0::n3" target="n0::n4">
      <data key="d9"/>
      <data key="d10">
        <y:PolyLineEdge>
          <y:Path sx="0.0" sy="0.0" tx="0.0" ty="0.0"/>
          <y:LineStyle color="#000000" type="line" width="1.0"/>
          <y:Arrows source="none" target="standard"/>
          <y:BendStyle smoothed="false"/>
        </y:PolyLineEdge>
      </data>
    </edge>
    <edge id="n0::e3" source="n0::n4" target="n0::n0">
      <data key="d9"/>
      <data key="d10">
        <y:PolyLineEdge>
          <y:Path sx="0.0" sy="0.0" tx="229.125" ty="-233.79236718224584"/>
          <y:LineStyle color="#000000" type="line" width="1.0"/>
          <y:Arrows source="none" target="standard"/>
          <y:BendStyle smoothed="false"/>
        </y:PolyLineEdge>
      </data>
    </edge>
    <edge id="n0::e4" source="n0::n0" target="n0::n5">
      <data key="d9"/>
      <data key="d10">
        <y:PolyLineEdge>
          <y:Path sx="227.875" sy="268.9197069042817" tx="0.0" ty="0.0"/>
          <y:LineStyle color="#000000" type="line" width="1.0"/>
          <y:Arrows source="none" target="standard"/>
          <y:BendStyle smoothed="false"/>
        </y:PolyLineEdge>
      </data>
    </edge>
    <edge id="n0::e5" source="n0::n6" target="n0::n7">
      <data key="d9"/>
      <data key="d10">
        <y:PolyLineEdge>
          <y:Path sx="3.0678615125007695" sy="-10.419430399999783" tx="0.062291200001254765" ty="-10.419430399999783"/>
          <y:LineStyle color="#000000" type="line" width="1.0"/>
          <y:Arrows source="none" target="standard"/>
          <y:BendStyle smoothed="false"/>
        </y:PolyLineEdge>
      </data>
    </edge>
    <edge id="n0::e6" source="n0::n7" target="n0::n6">
      <data key="d9"/>
      <data key="d10">
        <y:PolyLineEdge>
          <y:Path sx="1.5982912000011993" sy="10.060569600000576" tx="-0.004138487498494214" ty="10.060569600000576"/>
          <y:LineStyle color="#000000" type="line" width="1.0"/>
          <y:Arrows source="none" target="standard"/>
          <y:BendStyle smoothed="false"/>
        </y:PolyLineEdge>
      </data>
    </edge>
    <edge id="n0::n0::e0" source="n0::n0::n0" target="n0::n0::n1">
      <data key="d9"/>
      <data key="d10">
        <y:PolyLineEdge>
          <y:Path sx="0.0" sy="0.0" tx="0.0" ty="0.0"/>
          <y:LineStyle color="#000000" type="line" width="1.0"/>
          <y:Arrows source="none" target="standard"/>
          <y:BendStyle smoothed="false"/>
        </y:PolyLineEdge>
      </data>
    </edge>
    <edge id="n0::n0::e1" source="n0::n0::n3" target="n0::n0::n2">
      <data key="d9"/>
      <data key="d10">
        <y:PolyLineEdge>
          <y:Path sx="0.0" sy="0.0" tx="0.0" ty="0.0"/>
          <y:LineStyle color="#000000" type="line" width="1.0"/>
          <y:Arrows source="none" target="standard"/>
          <y:EdgeLabel alignment="center" configuration="AutoFlippingLabel" distance="2.0" fontFamily="Dialog" fontSize="12" fontStyle="plain" hasBackgroundColor="false" hasLineColor="false" height="18.1328125" modelName="custom" preferredPlacement="anywhere" ratio="0.5" textColor="#000000" visible="true" width="20.236328125" x="-10.1181640625" y="5.028320312499545">No<y:LabelModel>
              <y:SmartEdgeLabelModel autoRotationEnabled="false" defaultAngle="0.0" defaultDistance="10.0"/>
            </y:LabelModel>
            <y:ModelParameter>
              <y:SmartEdgeLabelModelParameter angle="0.0" distance="30.0" distanceToCenter="true" position="center" ratio="0.0" segment="0"/>
            </y:ModelParameter>
            <y:PreferredPlacementDescriptor angle="0.0" angleOffsetOnRightSide="0" angleReference="absolute" angleRotationOnRightSide="co" distance="-1.0" frozen="true" placement="anywhere" side="anywhere" sideReference="relative_to_edge_flow"/>
          </y:EdgeLabel>
          <y:BendStyle smoothed="false"/>
        </y:PolyLineEdge>
      </data>
    </edge>
    <edge id="n0::n0::e2" source="n0::n0::n3" target="n0::n0::n4">
      <data key="d9"/>
      <data key="d10">
        <y:PolyLineEdge>
          <y:Path sx="0.0" sy="0.0" tx="0.0" ty="0.0"/>
          <y:LineStyle color="#000000" type="line" width="1.0"/>
          <y:Arrows source="none" target="standard"/>
          <y:EdgeLabel alignment="center" configuration="AutoFlippingLabel" distance="2.0" fontFamily="Dialog" fontSize="12" fontStyle="plain" hasBackgroundColor="false" hasLineColor="false" height="18.1328125" modelName="custom" preferredPlacement="anywhere" ratio="0.5" textColor="#000000" visible="true" width="24.279296875" x="32.77416992187523" y="-9.066406250000568">Yes<y:LabelModel>
              <y:SmartEdgeLabelModel autoRotationEnabled="false" defaultAngle="0.0" defaultDistance="10.0"/>
            </y:LabelModel>
            <y:ModelParameter>
              <y:SmartEdgeLabelModelParameter angle="0.0" distance="30.0" distanceToCenter="true" position="center" ratio="0.5" segment="0"/>
            </y:ModelParameter>
            <y:PreferredPlacementDescriptor angle="0.0" angleOffsetOnRightSide="0" angleReference="absolute" angleRotationOnRightSide="co" distance="-1.0" frozen="true" placement="anywhere" side="anywhere" sideReference="relative_to_edge_flow"/>
          </y:EdgeLabel>
          <y:BendStyle smoothed="false"/>
        </y:PolyLineEdge>
      </data>
    </edge>
    <edge id="n0::n0::e3" source="n0::n0::n4" target="n0::n0::n2">
      <data key="d9"/>
      <data key="d10">
        <y:PolyLineEdge>
          <y:Path sx="0.0" sy="0.0" tx="0.0" ty="0.0">
            <y:Point x="935.2500000000005" y="966.4999999999997"/>
            <y:Point x="740.9404296875" y="966.4999999999997"/>
          </y:Path>
          <y:LineStyle color="#000000" type="line" width="1.0"/>
          <y:Arrows source="none" target="standard"/>
          <y:BendStyle smoothed="false"/>
        </y:PolyLineEdge>
      </data>
    </edge>
    <edge id="n0::n0::e4" source="n0::n0::n5" target="n0::n0::n3">
      <data key="d9"/>
      <data key="d10">
        <y:PolyLineEdge>
          <y:Path sx="0.0" sy="0.0" tx="0.0" ty="0.0"/>
          <y:LineStyle color="#000000" type="line" width="1.0"/>
          <y:Arrows source="none" target="standard"/>
          <y:EdgeLabel alignment="center" configuration="AutoFlippingLabel" distance="2.0" fontFamily="Dialog" fontSize="12" fontStyle="plain" hasBackgroundColor="false" hasLineColor="false" height="18.1328125" modelName="custom" preferredPlacement="anywhere" ratio="0.5" textColor="#000000" visible="true" width="20.236328125" x="-10.1181640625" y="4.995361328123977">No<y:LabelModel>
              <y:SmartEdgeLabelModel autoRotationEnabled="false" defaultAngle="0.0" defaultDistance="10.0"/>
            </y:LabelModel>
            <y:ModelParameter>
              <y:SmartEdgeLabelModelParameter angle="0.0" distance="30.0" distanceToCenter="true" position="center" ratio="0.0" segment="0"/>
            </y:ModelParameter>
            <y:PreferredPlacementDescriptor angle="0.0" angleOffsetOnRightSide="0" angleReference="absolute" angleRotationOnRightSide="co" distance="-1.0" frozen="true" placement="anywhere" side="anywhere" sideReference="relative_to_edge_flow"/>
          </y:EdgeLabel>
          <y:BendStyle smoothed="false"/>
        </y:PolyLineEdge>
      </data>
    </edge>
    <edge id="n0::n0::e5" source="n0::n0::n5" target="n0::n0::n6">
      <data key="d9"/>
      <data key="d10">
        <y:PolyLineEdge>
          <y:Path sx="0.0" sy="0.0" tx="0.0" ty="0.0"/>
          <y:LineStyle color="#000000" type="line" width="1.0"/>
          <y:Arrows source="none" target="standard"/>
          <y:EdgeLabel alignment="center" configuration="AutoFlippingLabel" distance="2.0" fontFamily="Dialog" fontSize="12" fontStyle="plain" hasBackgroundColor="false" hasLineColor="false" height="18.1328125" modelName="custom" preferredPlacement="anywhere" ratio="0.5" textColor="#000000" visible="true" width="24.279296875" x="32.77416992187523" y="-9.066406250001137">Yes<y:LabelModel>
              <y:SmartEdgeLabelModel autoRotationEnabled="false" defaultAngle="0.0" defaultDistance="10.0"/>
            </y:LabelModel>
            <y:ModelParameter>
              <y:SmartEdgeLabelModelParameter angle="0.0" distance="30.0" distanceToCenter="true" position="center" ratio="0.5" segment="0"/>
            </y:ModelParameter>
            <y:PreferredPlacementDescriptor angle="0.0" angleOffsetOnRightSide="0" angleReference="absolute" angleRotationOnRightSide="co" distance="-1.0" frozen="true" placement="anywhere" side="anywhere" sideReference="relative_to_edge_flow"/>
          </y:EdgeLabel>
          <y:BendStyle smoothed="false"/>
        </y:PolyLineEdge>
      </data>
    </edge>
    <edge id="n0::n0::e6" source="n0::n0::n6" target="n0::n0::n3">
      <data key="d9"/>
      <data key="d10">
        <y:PolyLineEdge>
          <y:Path sx="0.0" sy="0.0" tx="0.0" ty="0.0">
            <y:Point x="935.2500000000005" y="851.2499999999997"/>
            <y:Point x="740.9404296875" y="851.2499999999997"/>
          </y:Path>
          <y:LineStyle color="#000000" type="line" width="1.0"/>
          <y:Arrows source="none" target="standard"/>
          <y:BendStyle smoothed="false"/>
        </y:PolyLineEdge>
      </data>
    </edge>
    <edge id="n0::e7" source="n0::n6" target="n0::n0::n7">
      <data key="d9"/>
      <data key="d10">
        <y:PolyLineEdge>
          <y:Path sx="0.0" sy="0.0" tx="0.0" ty="0.0">
            <y:Point x="136.6904296875" y="559.9565696000003"/>
            <y:Point x="357.09521484375" y="559.9565696000003"/>
          </y:Path>
          <y:LineStyle color="#000000" type="line" width="1.0"/>
          <y:Arrows source="none" target="standard"/>
          <y:BendStyle smoothed="false"/>
        </y:PolyLineEdge>
      </data>
    </edge>
    <edge id="n0::n0::e7" source="n0::n0::n7" target="n0::n0::n8">
      <data key="d9"/>
      <data key="d10">
        <y:PolyLineEdge>
          <y:Path sx="0.0" sy="0.0" tx="0.0" ty="0.0">
            <y:Point x="136.6904296875" y="606.8333333333333"/>
          </y:Path>
          <y:LineStyle color="#000000" type="line" width="1.0"/>
          <y:Arrows source="none" target="standard"/>
          <y:BendStyle smoothed="false"/>
        </y:PolyLineEdge>
      </data>
    </edge>
    <edge id="n0::n0::e8" source="n0::n0::n8" target="n0::n0::n9">
      <data key="d9"/>
      <data key="d10">
        <y:PolyLineEdge>
          <y:Path sx="0.30957031250005684" sy="-9.917333333332863" tx="0.4960000000000946" ty="-9.917333333332863"/>
          <y:LineStyle color="#000000" type="line" width="1.0"/>
          <y:Arrows source="none" target="standard"/>
          <y:BendStyle smoothed="false"/>
        </y:PolyLineEdge>
      </data>
    </edge>
    <edge id="n0::n0::e9" source="n0::n0::n9" target="n0::n0::n8">
      <data key="d9"/>
      <data key="d10">
        <y:PolyLineEdge>
          <y:Path sx="1.0080000000000382" sy="9.02666666666721" tx="-0.7144296874999441" ty="9.02666666666721"/>
          <y:LineStyle color="#000000" type="line" width="1.0"/>
          <y:Arrows source="none" target="standard"/>
          <y:BendStyle smoothed="false"/>
        </y:PolyLineEdge>
      </data>
    </edge>
    <edge id="n0::n0::e10" source="n0::n0::n8" target="n0::n0::n10">
      <data key="d9"/>
      <data key="d10">
        <y:PolyLineEdge>
          <y:Path sx="0.0" sy="0.0" tx="0.0" ty="0.0"/>
          <y:LineStyle color="#000000" type="line" width="1.0"/>
          <y:Arrows source="none" target="standard"/>
          <y:BendStyle smoothed="false"/>
        </y:PolyLineEdge>
      </data>
    </edge>
    <edge id="n0::n0::e11" source="n0::n0::n10" target="n0::n0::n11">
      <data key="d9"/>
      <data key="d10">
        <y:PolyLineEdge>
          <y:Path sx="0.0" sy="0.0" tx="0.0" ty="0.0"/>
          <y:LineStyle color="#000000" type="line" width="1.0"/>
          <y:Arrows source="none" target="standard"/>
          <y:EdgeLabel alignment="center" configuration="AutoFlippingLabel" distance="2.0" fontFamily="Dialog" fontSize="12" fontStyle="plain" hasBackgroundColor="false" hasLineColor="false" height="18.1328125" modelName="custom" preferredPlacement="anywhere" ratio="0.5" textColor="#000000" visible="true" width="24.279296875" x="-42.1396484375" y="11.831461588540606">Yes<y:LabelModel>
              <y:SmartEdgeLabelModel autoRotationEnabled="false" defaultAngle="0.0" defaultDistance="10.0"/>
            </y:LabelModel>
            <y:ModelParameter>
              <y:SmartEdgeLabelModelParameter angle="0.0" distance="30.0" distanceToCenter="true" position="right" ratio="0.5" segment="0"/>
            </y:ModelParameter>
            <y:PreferredPlacementDescriptor angle="0.0" angleOffsetOnRightSide="0" angleReference="absolute" angleRotationOnRightSide="co" distance="-1.0" frozen="true" placement="anywhere" side="anywhere" sideReference="relative_to_edge_flow"/>
          </y:EdgeLabel>
          <y:BendStyle smoothed="false"/>
        </y:PolyLineEdge>
      </data>
    </edge>
    <edge id="n0::n0::e12" source="n0::n0::n11" target="n0::n0::n5">
      <data key="d9"/>
      <data key="d10">
        <y:PolyLineEdge>
          <y:Path sx="0.0" sy="0.0" tx="0.0" ty="0.0">
            <y:Point x="671.8520000000001" y="842.8333333333321"/>
            <y:Point x="671.8520000000001" y="760.999999999999"/>
          </y:Path>
          <y:LineStyle color="#000000" type="line" width="1.0"/>
          <y:Arrows source="none" target="standard"/>
          <y:BendStyle smoothed="false"/>
        </y:PolyLineEdge>
      </data>
    </edge>
    <edge id="n0::n0::e13" source="n0::n0::n10" target="n0::n0::n5">
      <data key="d9"/>
      <data key="d10">
        <y:PolyLineEdge>
          <y:Path sx="0.0" sy="0.0" tx="0.0" ty="0.0"/>
          <y:LineStyle color="#000000" type="line" width="1.0"/>
          <y:Arrows source="none" target="standard"/>
          <y:BendStyle smoothed="false"/>
        </y:PolyLineEdge>
      </data>
    </edge>
    <edge id="n0::e8" source="n0::n5" target="n0::n8">
      <data key="d9"/>
      <data key="d10">
        <y:PolyLineEdge>
          <y:Path sx="0.0" sy="0.0" tx="0.0" ty="0.0"/>
          <y:LineStyle color="#000000" type="line" width="1.0"/>
          <y:Arrows source="none" target="standard"/>
          <y:BendStyle smoothed="false"/>
        </y:PolyLineEdge>
      </data>
    </edge>
    <edge id="n0::e9" source="n0::n8" target="n0::n9">
      <data key="d9"/>
      <data key="d10">
        <y:PolyLineEdge>
          <y:Path sx="0.0" sy="0.0" tx="0.0" ty="0.0">
            <y:Point x="139.0341796875" y="1276.5624999999998"/>
          </y:Path>
          <y:LineStyle color="#000000" type="line" width="1.0"/>
          <y:Arrows source="none" target="standard"/>
          <y:BendStyle smoothed="false"/>
        </y:PolyLineEdge>
      </data>
    </edge>
    <edge id="n0::e10" source="n0::n0::n1" target="n0::n6">
      <data key="d9"/>
      <data key="d10">
        <y:PolyLineEdge>
          <y:Path sx="0.0" sy="0.0" tx="0.0" ty="0.0"/>
          <y:LineStyle color="#000000" type="line" width="1.0"/>
          <y:Arrows source="none" target="standard"/>
          <y:BendStyle smoothed="false"/>
        </y:PolyLineEdge>
      </data>
    </edge>
  </graph>
  <data key="d0">
    <y:Resources/>
  </data>
</graphml>
